dump.vcd
$date
	Mon Sep 23 18:12:28 2019
$end

$version
	Synopsys VCS version O-2018.09_Full64
$end

$timescale
	1ps
$end

$comment Csum: 1 89aaed19227c20d7 $end


$scope module _vcs_msglog $end
$var reg 32 ! _MSG_T [31:0] $end
$var reg 32 " _MSG_S [31:0] $end
$var reg 32 # _MSG_R [31:0] $end
$upscope $end


$scope module uvm_custom_install_recording $end
$var reg 32 $ file_handle [31:0] $end
$var reg 32 % is_sanity_exist [31:0] $end

$scope begin unnamed$$_vcs_2 $end

$scope begin unnamed$$_0 $end
$upscope $end

$upscope $end

$upscope $end


$scope module my_pkg $end
$upscope $end


$scope module top $end
$var reg 1 & clk $end
$var reg 1 ' pready_tb $end

$scope begin unnamed$$_vcs_3 $end
$upscope $end


$scope begin unnamed$$_vcs_0 $end
$upscope $end


$scope begin unnamed$$_vcs_1 $end
$upscope $end


$scope begin unnamed$$_vcs_2 $end
$upscope $end


$scope module my_interface_h $end
$var reg 1 ( clk $end
$var reg 32 ) paddr [31:0] $end
$var reg 32 * prdata [31:0] $end
$var reg 32 + pwdata [31:0] $end
$var reg 1 , pwrite $end
$var reg 1 - psel $end
$var reg 1 . penable $end
$var reg 1 / pready $end
$var reg 1 0 rst $end
$var reg 1 1 pslverr $end
$var reg 1 2 rx $end
$var reg 1 3 tx $end
$upscope $end

$upscope $end


$scope module dut_ $end
$var wire 1 4 clk $end
$var wire 1 5 rst $end
$var wire 1 6 paddr $end
$var wire 1 7 pwdata $end
$var wire 1 8 pwrite $end
$var wire 1 9 psel $end
$var wire 1 : penable $end
$var wire 1 ; pslverr $end
$var wire 1 < rx $end
$var wire 1 = prdata $end
$var wire 1 > pready $end
$var wire 1 ? tx $end
$upscope $end


$scope module uvm_pkg $end
$var reg 32 @ UVM_UNBOUNDED_CONNECTIONS [31:0] $end
$var reg 1 A uvm_start_uvm_declarations $end
$var reg 32 B uvm_global_random_seed [31:0] $end
$upscope $end

$enddefinitions $end

#0
$dumpvars
1A
b11111111111111111111111111111111 @
b01000010000001111100110001000111 B
b00000000000000000000000000000000 #
b00000000000000000000000000000000 "
b00000000000000000000000000000000 !
b00000000000000000000000000000000 $
b00000000000000000000000000000000 %
0&
0'
b00000000000000000000000000000000 +
b00000000000000000000000000000000 *
b00000000000000000000000000000000 )
0(
00
0.
z/
0-
x1
0,
x2
x3
z4
z5
z6
z7
z8
z9
z:
z;
z<
z=
z>
z?
$end
#10000
1&
1(
0/
#20000
0&
0(
#30000
1&
1(
#40000
0&
0(
#50000
1&
1(
#60000
0&
0(
#70000
1&
1(
1'
b00000000000000000000000001100000 *
#80000
0&
0(
#90000
1&
1(
1/
1,
1-
b00000000000000000000000000110000 )
b00000000000000000000000000000000 *
#100000
0&
0(
#110000
1&
1(
1.
#120000
0&
0(
#130000
1&
1(
0-
0.
#140000
0&
0(
#150000
1&
1(
0'
b00000000000000000000000000100101 *
#160000
0&
0(
#170000
1&
1(
0/
#180000
0&
0(
#190000
1&
1(
#200000
0&
0(
#210000
1&
1(
#220000
0&
0(
#230000
1&
1(
1'
b00000000000000000000000001011010 *
#240000
0&
0(
#250000
1&
1(
1/
1-
b00000000000000000000000001001111 )
b00000000000000000000000000000000 *
#260000
0&
0(
#270000
1&
1(
1.
#280000
0&
0(
#290000
1&
1(
0-
0.
#300000
0&
0(
#310000
1&
1(
0'
b00000000000000000000000000010011 *
#320000
0&
0(
#330000
1&
1(
0/
#340000
0&
0(
#350000
1&
1(
1-
b00000000000000000000000001011100 )
b00000000000000000000000000000000 *
#360000
0&
0(
#370000
1&
1(
1.
#380000
0&
0(
#390000
1&
1(
1'
b00000000000000000000000000111100 *
#400000
0&
0(
#410000
1&
1(
1/
#420000
0&
0(
#430000
1&
1(
0-
0.
#440000
0&
0(
#450000
1&
1(
#460000
0&
0(
#470000
1&
1(
0'
b00000000000000000000000001011010 *
#480000
0&
0(
#490000
1&
1(
0/
#500000
0&
0(
#510000
1&
1(
1-
b00000000000000000000000000110011 )
b00000000000000000000000000000000 *
#520000
0&
0(
#530000
1&
1(
1.
#540000
0&
0(
#550000
1&
1(
1'
b00000000000000000000000001001010 *
#560000
0&
0(
#570000
1&
1(
1/
#580000
0&
0(
#590000
1&
1(
0-
0.
#600000
0&
0(
#610000
1&
1(
#620000
0&
0(
#630000
1&
1(
0'
b00000000000000000000000000111101 *
#640000
0&
0(
#650000
1&
1(
0/
#660000
0&
0(
#670000
1&
1(
#680000
0&
0(
#690000
1&
1(
1-
b00000000000000000000000000101100 )
b00000000000000000000000000000000 *
#700000
0&
0(
#710000
1&
1(
1'
b00000000000000000000000000101101 *
1.
#720000
0&
0(
#730000
1&
1(
1/
#740000
0&
0(
#750000
1&
1(
0-
0.
#760000
0&
0(
#770000
1&
1(
#780000
0&
0(
#790000
1&
1(
0'
b00000000000000000000000001010101 *
#800000
0&
0(
#810000
1&
1(
0/
#820000
0&
0(
#830000
1&
1(
#840000
0&
0(
#850000
1&
1(
#860000
0&
0(
#870000
1&
1(
1'
b00000000000000000000000001010001 *
1-
b00000000000000000000000000100100 )
b00000000000000000000000000000000 *
#880000
0&
0(
#890000
1&
1(
1/
1.
#900000
0&
0(
#910000
1&
1(
0-
0.
#920000
0&
0(
#930000
1&
1(
#940000
0&
0(
#950000
1&
1(
0'
b00000000000000000000000001010100 *
1-
b00000000000000000000000000100011 )
b00000000000000000000000000000000 *
#960000
0&
0(
#970000
1&
1(
0/
1.
#980000
0&
0(
#990000
1&
1(
0-
0.
#1000000
0&
0(
#1010000
1&
1(
#1020000
0&
0(
#1030000
1&
1(
1'
b00000000000000000000000001010100 *
#1040000
0&
0(
#1050000
1&
1(
1/
#1060000
0&
0(
#1070000
1&
1(
#1080000
0&
0(
#1090000
1&
1(
#1100000
0&
0(
#1110000
1&
1(
0'
b00000000000000000000000001100010 *
#1120000
0&
0(
#1130000
1&
1(
0/
#1140000
0&
0(
#1150000
1&
1(
#1160000
0&
0(
#1170000
1&
1(
#1180000
0&
0(
#1190000
1&
1(
1'
b00000000000000000000000000101001 *
1-
b00000000000000000000000000000101 )
b00000000000000000000000000000000 *
#1200000
0&
0(
#1210000
1&
1(
1/
1.
#1220000
0&
0(
#1230000
1&
1(
0-
0.
#1240000
0&
0(
#1250000
1&
1(
#1260000
0&
0(
#1270000
1&
1(
0'
b00000000000000000000000000101101 *
#1280000
0&
0(
#1290000
1&
1(
0/
#1300000
0&
0(
#1310000
1&
1(
#1320000
0&
0(
#1330000
1&
1(
1-
b00000000000000000000000000100110 )
b00000000000000000000000000000000 *
#1340000
0&
0(
#1350000
1&
1(
1'
b00000000000000000000000000011000 *
1.
#1360000
0&
0(
#1370000
1&
1(
1/
#1380000
0&
0(
#1390000
1&
1(
0-
0.
#1400000
0&
0(
#1410000
1&
1(
#1420000
0&
0(
#1430000
1&
1(
0'
b00000000000000000000000000011001 *
#1440000
0&
0(
#1450000
1&
1(
0/
1-
b00000000000000000000000000110110 )
b00000000000000000000000000000000 *
#1460000
0&
0(
#1470000
1&
1(
1.
#1480000
0&
0(
#1490000
1&
1(
#1500000
0&
0(
#1510000
1&
1(
1'
b00000000000000000000000001100011 *
#1520000
0&
0(
#1530000
1&
1(
1/
#1540000
0&
0(
#1550000
1&
1(
0-
0.
